EESchema Schematic File Version 4
EELAYER 30 0
EELAYER END
$Descr A4 11693 8268
encoding utf-8
Sheet 1 1
Title ""
Date ""
Rev ""
Comp ""
Comment1 ""
Comment2 ""
Comment3 ""
Comment4 ""
$EndDescr
$Comp
L ESP32-footprints-Shem-Lib:ESP32-WROOM U2
U 1 1 60B80967
P 5760 3015
F 0 "U2" H 5735 4402 60  0000 C CNN
F 1 "ESP32-WROOM" H 5735 4296 60  0000 C CNN
F 2 "RF_Module:ESP32-WROOM-32" H 6110 4365 60  0001 C CNN
F 3 "" H 5310 3465 60  0001 C CNN
	1    5760 3015
	1    0    0    -1  
$EndComp
Wire Wire Line
	3110 2415 3160 2415
$Comp
L Device:C_Small C3
U 1 1 60B81006
P 3460 2590
F 0 "C3" H 3552 2636 50  0000 L CNN
F 1 "10u" H 3552 2545 50  0000 L CNN
F 2 "Capacitor_SMD:C_0805_2012Metric_Pad1.18x1.45mm_HandSolder" H 3460 2590 50  0001 C CNN
F 3 "~" H 3460 2590 50  0001 C CNN
	1    3460 2590
	1    0    0    -1  
$EndComp
$Comp
L Device:C_Small C2
U 1 1 60B810FD
P 3160 2590
F 0 "C2" H 3252 2636 50  0000 L CNN
F 1 "0.1u" H 3252 2545 50  0000 L CNN
F 2 "Capacitor_SMD:C_0805_2012Metric_Pad1.18x1.45mm_HandSolder" H 3160 2590 50  0001 C CNN
F 3 "~" H 3160 2590 50  0001 C CNN
	1    3160 2590
	1    0    0    -1  
$EndComp
Wire Wire Line
	3160 2490 3160 2415
Connection ~ 3160 2415
Wire Wire Line
	3160 2415 3460 2415
Wire Wire Line
	3460 2490 3460 2415
Connection ~ 3460 2415
Wire Wire Line
	3460 2415 3960 2415
Wire Wire Line
	3160 2690 3160 2815
Wire Wire Line
	3160 2815 2810 2815
Wire Wire Line
	3460 2690 3460 2815
Wire Wire Line
	3460 2815 3160 2815
Connection ~ 3160 2815
$Comp
L Device:C_Small C1
U 1 1 60B8163E
P 1985 2540
F 0 "C1" H 2077 2586 50  0000 L CNN
F 1 "10u" H 2077 2495 50  0000 L CNN
F 2 "Capacitor_SMD:C_0805_2012Metric_Pad1.18x1.45mm_HandSolder" H 1985 2540 50  0001 C CNN
F 3 "~" H 1985 2540 50  0001 C CNN
	1    1985 2540
	1    0    0    -1  
$EndComp
Wire Wire Line
	1985 2415 1985 2440
Wire Wire Line
	1985 2640 1985 2815
Wire Wire Line
	1985 2815 2710 2815
Connection ~ 2710 2815
$Comp
L power:+3.3V #PWR03
U 1 1 60B81C89
P 3460 2340
F 0 "#PWR03" H 3460 2190 50  0001 C CNN
F 1 "+3.3V" H 3475 2513 50  0000 C CNN
F 2 "" H 3460 2340 50  0001 C CNN
F 3 "" H 3460 2340 50  0001 C CNN
	1    3460 2340
	1    0    0    -1  
$EndComp
$Comp
L power:+3.3V #PWR010
U 1 1 60B81CE1
P 7890 3160
F 0 "#PWR010" H 7890 3010 50  0001 C CNN
F 1 "+3.3V" H 7905 3333 50  0000 C CNN
F 2 "" H 7890 3160 50  0001 C CNN
F 3 "" H 7890 3160 50  0001 C CNN
	1    7890 3160
	1    0    0    -1  
$EndComp
$Comp
L power:+5V #PWR02
U 1 1 60B81D28
P 1985 2315
F 0 "#PWR02" H 1985 2165 50  0001 C CNN
F 1 "+5V" H 2000 2488 50  0000 C CNN
F 2 "" H 1985 2315 50  0001 C CNN
F 3 "" H 1985 2315 50  0001 C CNN
	1    1985 2315
	1    0    0    -1  
$EndComp
Wire Wire Line
	1985 2315 1985 2345
Connection ~ 1985 2415
Wire Wire Line
	3460 2340 3460 2415
$Comp
L Connector_Generic:Conn_01x04 J2
U 1 1 60B83531
P 8235 2515
F 0 "J2" H 8315 2507 50  0000 L CNN
F 1 "I2C" H 8315 2416 50  0000 L CNN
F 2 "Connector_PinHeader_2.54mm:PinHeader_1x04_P2.54mm_Vertical" H 8235 2515 50  0001 C CNN
F 3 "~" H 8235 2515 50  0001 C CNN
	1    8235 2515
	1    0    0    -1  
$EndComp
$Comp
L power:Earth #PWR05
U 1 1 60B840CC
P 7335 2535
F 0 "#PWR05" H 7335 2285 50  0001 C CNN
F 1 "Earth" H 7335 2385 50  0001 C CNN
F 2 "" H 7335 2535 50  0001 C CNN
F 3 "~" H 7335 2535 50  0001 C CNN
	1    7335 2535
	1    0    0    1   
$EndComp
$Comp
L power:Earth #PWR06
U 1 1 60B84145
P 8035 2365
F 0 "#PWR06" H 8035 2115 50  0001 C CNN
F 1 "Earth" H 8035 2215 50  0001 C CNN
F 2 "" H 8035 2365 50  0001 C CNN
F 3 "~" H 8035 2365 50  0001 C CNN
	1    8035 2365
	1    0    0    1   
$EndComp
$Comp
L power:Earth #PWR015
U 1 1 60B84498
P 4985 4140
F 0 "#PWR015" H 4985 3890 50  0001 C CNN
F 1 "Earth" H 4985 3990 50  0001 C CNN
F 2 "" H 4985 4140 50  0001 C CNN
F 3 "~" H 4985 4140 50  0001 C CNN
	1    4985 4140
	1    0    0    -1  
$EndComp
$Comp
L power:Earth #PWR07
U 1 1 60B847F3
P 2710 2890
F 0 "#PWR07" H 2710 2640 50  0001 C CNN
F 1 "Earth" H 2710 2740 50  0001 C CNN
F 2 "" H 2710 2890 50  0001 C CNN
F 3 "~" H 2710 2890 50  0001 C CNN
	1    2710 2890
	1    0    0    -1  
$EndComp
Wire Wire Line
	2710 2890 2710 2815
Wire Wire Line
	5310 4065 4985 4065
Wire Wire Line
	4810 4065 4810 3715
Wire Wire Line
	4985 4140 4985 4065
Connection ~ 4985 4065
Wire Wire Line
	4985 4065 4810 4065
Wire Wire Line
	8035 2365 8035 2415
$Comp
L power:+3.3V #PWR01
U 1 1 60B865CE
P 7760 2040
F 0 "#PWR01" H 7760 1890 50  0001 C CNN
F 1 "+3.3V" H 7775 2213 50  0000 C CNN
F 2 "" H 7760 2040 50  0001 C CNN
F 3 "" H 7760 2040 50  0001 C CNN
	1    7760 2040
	1    0    0    -1  
$EndComp
Wire Wire Line
	7760 2515 7760 2365
Wire Wire Line
	7760 2365 6660 2365
Wire Wire Line
	6660 2665 7110 2665
$Comp
L Device:R_Small R2
U 1 1 60B88958
P 7760 2265
F 0 "R2" H 7819 2311 50  0000 L CNN
F 1 "2.2k" H 7819 2220 50  0000 L CNN
F 2 "Resistor_SMD:R_0805_2012Metric_Pad1.20x1.40mm_HandSolder" H 7760 2265 50  0001 C CNN
F 3 "~" H 7760 2265 50  0001 C CNN
	1    7760 2265
	1    0    0    -1  
$EndComp
$Comp
L Device:R_Small R1
U 1 1 60B889D8
P 7535 2165
F 0 "R1" H 7594 2211 50  0000 L CNN
F 1 "2.2k" H 7594 2120 50  0000 L CNN
F 2 "Resistor_SMD:R_0805_2012Metric_Pad1.20x1.40mm_HandSolder" H 7535 2165 50  0001 C CNN
F 3 "~" H 7535 2165 50  0001 C CNN
	1    7535 2165
	0    -1   -1   0   
$EndComp
Connection ~ 7760 2365
Wire Wire Line
	7635 2165 7760 2165
Connection ~ 7760 2165
Wire Wire Line
	7760 2165 7760 2040
Wire Wire Line
	7435 2165 7110 2165
Wire Wire Line
	7110 2165 7110 2665
Text Notes 7815 2805 0    50   ~ 0
SCL
Text Notes 7835 2615 0    50   ~ 0
SDA
$Comp
L power:Earth #PWR013
U 1 1 60B92853
P 6685 3715
F 0 "#PWR013" H 6685 3465 50  0001 C CNN
F 1 "Earth" H 6685 3565 50  0001 C CNN
F 2 "" H 6685 3715 50  0001 C CNN
F 3 "~" H 6685 3715 50  0001 C CNN
	1    6685 3715
	1    0    0    -1  
$EndComp
Wire Wire Line
	6685 3715 6685 3665
Wire Wire Line
	6685 3665 6660 3665
$Comp
L Device:R_Small R3
U 1 1 60BA26A5
P 3960 2540
F 0 "R3" H 4019 2586 50  0000 L CNN
F 1 "10k" H 4019 2495 50  0000 L CNN
F 2 "Resistor_SMD:R_0805_2012Metric_Pad1.20x1.40mm_HandSolder" H 3960 2540 50  0001 C CNN
F 3 "~" H 3960 2540 50  0001 C CNN
	1    3960 2540
	1    0    0    -1  
$EndComp
$Comp
L Device:C_Small C4
U 1 1 60BA3A82
P 3960 2940
F 0 "C4" H 4052 2986 50  0000 L CNN
F 1 "0.1u" H 4052 2895 50  0000 L CNN
F 2 "Capacitor_SMD:C_0805_2012Metric_Pad1.18x1.45mm_HandSolder" H 3960 2940 50  0001 C CNN
F 3 "~" H 3960 2940 50  0001 C CNN
	1    3960 2940
	1    0    0    -1  
$EndComp
$Comp
L Switch:SW_Push SW1
U 1 1 60BA4DC2
P 3785 2890
F 0 "SW1" V 3860 3115 50  0000 R CNN
F 1 "RESET" V 3685 3115 50  0000 R CNN
F 2 "Button_Switch_THT:SW_PUSH_6mm" H 3785 3090 50  0001 C CNN
F 3 "" H 3785 3090 50  0001 C CNN
	1    3785 2890
	0    -1   -1   0   
$EndComp
Wire Wire Line
	3960 2440 3960 2415
Connection ~ 3960 2415
Wire Wire Line
	3960 2415 4375 2415
Wire Wire Line
	3960 2840 3960 2690
Wire Wire Line
	3785 2690 3960 2690
Connection ~ 3960 2690
Wire Wire Line
	3960 2690 3960 2640
Wire Wire Line
	3960 3040 3960 3090
Wire Wire Line
	3960 3090 3785 3090
Wire Wire Line
	3785 3090 3460 3090
Wire Wire Line
	3460 3090 3460 2815
Connection ~ 3785 3090
Connection ~ 3460 2815
Wire Wire Line
	3960 2690 4185 2690
Wire Wire Line
	4185 2690 4185 2515
Wire Wire Line
	4185 2515 4810 2515
$Comp
L Device:R_Small R5
U 1 1 60BAD84C
P 7960 3315
F 0 "R5" H 8019 3361 50  0000 L CNN
F 1 "10k" H 8019 3270 50  0000 L CNN
F 2 "Resistor_SMD:R_0805_2012Metric_Pad1.20x1.40mm_HandSolder" H 7960 3315 50  0001 C CNN
F 3 "~" H 7960 3315 50  0001 C CNN
	1    7960 3315
	-1   0    0    -1  
$EndComp
$Comp
L Device:C_Small C5
U 1 1 60BAD853
P 7960 3715
F 0 "C5" H 8052 3761 50  0000 L CNN
F 1 "0.1u" H 8052 3670 50  0000 L CNN
F 2 "Capacitor_SMD:C_0805_2012Metric_Pad1.18x1.45mm_HandSolder" H 7960 3715 50  0001 C CNN
F 3 "~" H 7960 3715 50  0001 C CNN
	1    7960 3715
	-1   0    0    -1  
$EndComp
$Comp
L Switch:SW_Push SW2
U 1 1 60BAD85A
P 8135 3665
F 0 "SW2" V 8210 3890 50  0000 R CNN
F 1 "PROG" V 8035 3890 50  0000 R CNN
F 2 "Button_Switch_THT:SW_PUSH_6mm" H 8135 3865 50  0001 C CNN
F 3 "" H 8135 3865 50  0001 C CNN
	1    8135 3665
	0    1    -1   0   
$EndComp
Wire Wire Line
	7960 3615 7960 3465
Wire Wire Line
	8135 3465 7960 3465
Connection ~ 7960 3465
Wire Wire Line
	7960 3465 7960 3415
Wire Wire Line
	7960 3815 7960 3865
Wire Wire Line
	7960 3865 8135 3865
Wire Wire Line
	6660 3465 7960 3465
$Comp
L power:Earth #PWR014
U 1 1 60BBD756
P 8135 3915
F 0 "#PWR014" H 8135 3665 50  0001 C CNN
F 1 "Earth" H 8135 3765 50  0001 C CNN
F 2 "" H 8135 3915 50  0001 C CNN
F 3 "~" H 8135 3915 50  0001 C CNN
	1    8135 3915
	1    0    0    -1  
$EndComp
Wire Wire Line
	8135 3915 8135 3865
Connection ~ 8135 3865
Wire Wire Line
	6660 3565 6685 3565
Wire Wire Line
	6685 3565 6685 3665
Connection ~ 6685 3665
$Comp
L Device:R_Small R23
U 1 1 60D64512
P 8210 1715
F 0 "R23" V 8406 1715 50  0000 C CNN
F 1 "220" V 8315 1715 50  0000 C CNN
F 2 "Resistor_SMD:R_0805_2012Metric_Pad1.20x1.40mm_HandSolder" H 8210 1715 50  0001 C CNN
F 3 "~" H 8210 1715 50  0001 C CNN
	1    8210 1715
	0    -1   -1   0   
$EndComp
$Comp
L Device:LED D2
U 1 1 60D71DB9
P 8535 1715
F 0 "D2" H 8527 1931 50  0000 C CNN
F 1 "LED" H 8527 1840 50  0000 C CNN
F 2 "LED_SMD:LED_0603_1608Metric_Pad1.05x0.95mm_HandSolder" H 8535 1715 50  0001 C CNN
F 3 "~" H 8535 1715 50  0001 C CNN
	1    8535 1715
	-1   0    0    -1  
$EndComp
Wire Wire Line
	8110 1715 6885 1715
Wire Wire Line
	6885 1715 6885 2265
Wire Wire Line
	6885 2265 6660 2265
Wire Wire Line
	8310 1715 8385 1715
$Comp
L power:Earth #PWR022
U 1 1 60D802A4
P 8785 1715
F 0 "#PWR022" H 8785 1465 50  0001 C CNN
F 1 "Earth" H 8785 1565 50  0001 C CNN
F 2 "" H 8785 1715 50  0001 C CNN
F 3 "~" H 8785 1715 50  0001 C CNN
	1    8785 1715
	0    -1   -1   0   
$EndComp
Wire Wire Line
	8785 1715 8685 1715
$Comp
L Device:R_Small R22
U 1 1 60D87658
P 8210 1340
F 0 "R22" V 8406 1340 50  0000 C CNN
F 1 "220" V 8315 1340 50  0000 C CNN
F 2 "Resistor_SMD:R_0805_2012Metric_Pad1.20x1.40mm_HandSolder" H 8210 1340 50  0001 C CNN
F 3 "~" H 8210 1340 50  0001 C CNN
	1    8210 1340
	0    -1   -1   0   
$EndComp
$Comp
L Device:LED D1
U 1 1 60D8765F
P 8535 1340
F 0 "D1" H 8527 1556 50  0000 C CNN
F 1 "LED" H 8527 1465 50  0000 C CNN
F 2 "LED_SMD:LED_0603_1608Metric_Pad1.05x0.95mm_HandSolder" H 8535 1340 50  0001 C CNN
F 3 "~" H 8535 1340 50  0001 C CNN
	1    8535 1340
	-1   0    0    -1  
$EndComp
Wire Wire Line
	8310 1340 8385 1340
$Comp
L power:Earth #PWR021
U 1 1 60D87667
P 8785 1340
F 0 "#PWR021" H 8785 1090 50  0001 C CNN
F 1 "Earth" H 8785 1190 50  0001 C CNN
F 2 "" H 8785 1340 50  0001 C CNN
F 3 "~" H 8785 1340 50  0001 C CNN
	1    8785 1340
	0    -1   -1   0   
$EndComp
Wire Wire Line
	8785 1340 8685 1340
$Comp
L power:+3.3V #PWR020
U 1 1 60D8EBBF
P 7960 1340
F 0 "#PWR020" H 7960 1190 50  0001 C CNN
F 1 "+3.3V" H 7975 1513 50  0000 C CNN
F 2 "" H 7960 1340 50  0001 C CNN
F 3 "" H 7960 1340 50  0001 C CNN
	1    7960 1340
	0    -1   -1   0   
$EndComp
Wire Wire Line
	7960 1340 8110 1340
Wire Wire Line
	7260 2465 6660 2465
Wire Wire Line
	7210 2565 6660 2565
Wire Wire Line
	7890 3160 7960 3160
Wire Wire Line
	7960 3160 7960 3215
$Comp
L Connector_Generic:Conn_01x04 J3
U 1 1 63003C1E
P 7535 2635
F 0 "J3" H 7615 2627 50  0000 L CNN
F 1 "UART" H 7615 2536 50  0000 L CNN
F 2 "Connector_PinHeader_2.54mm:PinHeader_1x04_P2.54mm_Vertical" H 7535 2635 50  0001 C CNN
F 3 "~" H 7535 2635 50  0001 C CNN
	1    7535 2635
	1    0    0    -1  
$EndComp
Connection ~ 7110 2665
Wire Wire Line
	7110 3005 7760 3005
Wire Wire Line
	7760 2615 7760 3005
Wire Wire Line
	7110 2665 7110 3005
$Comp
L power:+3.3V #PWR04
U 1 1 6301264D
P 7335 2835
F 0 "#PWR04" H 7335 2685 50  0001 C CNN
F 1 "+3.3V" H 7350 3008 50  0000 C CNN
F 2 "" H 7335 2835 50  0001 C CNN
F 3 "" H 7335 2835 50  0001 C CNN
	1    7335 2835
	1    0    0    1   
$EndComp
Wire Wire Line
	7260 2465 7260 2635
Wire Wire Line
	7260 2635 7335 2635
Wire Wire Line
	7210 2565 7210 2735
Wire Wire Line
	7210 2735 7335 2735
$Comp
L DRV8212DSGR:DRV8212DSGR IC1
U 1 1 63025B0B
P 2235 4010
F 0 "IC1" H 2835 4275 50  0000 C CNN
F 1 "DRV8212DSGR" H 2835 4184 50  0000 C CNN
F 2 "DRV8212DSGR:SON50P200X200X80-9N" H 3285 4110 50  0001 L CNN
F 3 "https://www.ti.com/lit/ds/symlink/drv8212.pdf?ts=1649239749819&ref_url=https%253A%252F%252Fwww.google.com%252F" H 3285 4010 50  0001 L CNN
F 4 "Motor/Motion/Ignition Controllers & Drivers 12-V, 2-A Low voltag e H-bridge motor dr" H 3285 3910 50  0001 L CNN "Description"
F 5 "0.8" H 3285 3810 50  0001 L CNN "Height"
F 6 "Texas Instruments" H 3285 3710 50  0001 L CNN "Manufacturer_Name"
F 7 "DRV8212DSGR" H 3285 3610 50  0001 L CNN "Manufacturer_Part_Number"
F 8 "595-DRV8212DSGR" H 3285 3510 50  0001 L CNN "Mouser Part Number"
F 9 "https://www.mouser.co.uk/ProductDetail/Texas-Instruments/DRV8212DSGR?qs=QNEnbhJQKvYBJvBIzhVqZw%3D%3D" H 3285 3410 50  0001 L CNN "Mouser Price/Stock"
F 10 "" H 3285 3310 50  0001 L CNN "Arrow Part Number"
F 11 "" H 3285 3210 50  0001 L CNN "Arrow Price/Stock"
	1    2235 4010
	1    0    0    -1  
$EndComp
$Comp
L DRV8212DSGR:DRV8212DSGR IC2
U 1 1 630281BF
P 9060 4485
F 0 "IC2" H 9660 4750 50  0000 C CNN
F 1 "DRV8212DSGR" H 9660 4659 50  0000 C CNN
F 2 "DRV8212DSGR:SON50P200X200X80-9N" H 10110 4585 50  0001 L CNN
F 3 "https://www.ti.com/lit/ds/symlink/drv8212.pdf?ts=1649239749819&ref_url=https%253A%252F%252Fwww.google.com%252F" H 10110 4485 50  0001 L CNN
F 4 "Motor/Motion/Ignition Controllers & Drivers 12-V, 2-A Low voltag e H-bridge motor dr" H 10110 4385 50  0001 L CNN "Description"
F 5 "0.8" H 10110 4285 50  0001 L CNN "Height"
F 6 "Texas Instruments" H 10110 4185 50  0001 L CNN "Manufacturer_Name"
F 7 "DRV8212DSGR" H 10110 4085 50  0001 L CNN "Manufacturer_Part_Number"
F 8 "595-DRV8212DSGR" H 10110 3985 50  0001 L CNN "Mouser Part Number"
F 9 "https://www.mouser.co.uk/ProductDetail/Texas-Instruments/DRV8212DSGR?qs=QNEnbhJQKvYBJvBIzhVqZw%3D%3D" H 10110 3885 50  0001 L CNN "Mouser Price/Stock"
F 10 "" H 10110 3785 50  0001 L CNN "Arrow Part Number"
F 11 "" H 10110 3685 50  0001 L CNN "Arrow Price/Stock"
	1    9060 4485
	-1   0    0    -1  
$EndComp
$Comp
L Device:C_Small C7
U 1 1 6302FC08
P 2065 3790
F 0 "C7" H 2157 3836 50  0000 L CNN
F 1 "10u" H 2157 3745 50  0000 L CNN
F 2 "Capacitor_SMD:C_0805_2012Metric_Pad1.18x1.45mm_HandSolder" H 2065 3790 50  0001 C CNN
F 3 "~" H 2065 3790 50  0001 C CNN
	1    2065 3790
	1    0    0    -1  
$EndComp
$Comp
L Device:C_Small C6
U 1 1 6302FC0E
P 1765 3790
F 0 "C6" H 1857 3836 50  0000 L CNN
F 1 "0.1u" H 1857 3745 50  0000 L CNN
F 2 "Capacitor_SMD:C_0805_2012Metric_Pad1.18x1.45mm_HandSolder" H 1765 3790 50  0001 C CNN
F 3 "~" H 1765 3790 50  0001 C CNN
	1    1765 3790
	1    0    0    -1  
$EndComp
$Comp
L Device:C_Small C10
U 1 1 630319B8
P 9240 4340
F 0 "C10" H 9332 4386 50  0000 L CNN
F 1 "10u" H 9332 4295 50  0000 L CNN
F 2 "Capacitor_SMD:C_0805_2012Metric_Pad1.18x1.45mm_HandSolder" H 9240 4340 50  0001 C CNN
F 3 "~" H 9240 4340 50  0001 C CNN
	1    9240 4340
	-1   0    0    -1  
$EndComp
$Comp
L Device:C_Small C11
U 1 1 630319BE
P 9540 4340
F 0 "C11" H 9632 4386 50  0000 L CNN
F 1 "0.1u" H 9632 4295 50  0000 L CNN
F 2 "Capacitor_SMD:C_0805_2012Metric_Pad1.18x1.45mm_HandSolder" H 9540 4340 50  0001 C CNN
F 3 "~" H 9540 4340 50  0001 C CNN
	1    9540 4340
	-1   0    0    -1  
$EndComp
Wire Wire Line
	9060 4485 9240 4485
Wire Wire Line
	9540 4485 9540 4440
Wire Wire Line
	9240 4440 9240 4485
Connection ~ 9240 4485
Wire Wire Line
	9240 4485 9540 4485
Wire Wire Line
	9240 4240 9390 4240
Wire Wire Line
	2235 4010 2065 4010
Wire Wire Line
	1765 4010 1765 3890
Wire Wire Line
	2065 3890 2065 4010
Connection ~ 2065 4010
Wire Wire Line
	2065 4010 1765 4010
Wire Wire Line
	2065 3690 1920 3690
$Comp
L power:Earth #PWR019
U 1 1 6304185B
P 1920 3665
F 0 "#PWR019" H 1920 3415 50  0001 C CNN
F 1 "Earth" H 1920 3515 50  0001 C CNN
F 2 "" H 1920 3665 50  0001 C CNN
F 3 "~" H 1920 3665 50  0001 C CNN
	1    1920 3665
	-1   0    0    1   
$EndComp
Wire Wire Line
	1920 3665 1920 3690
Connection ~ 1920 3690
Wire Wire Line
	1920 3690 1765 3690
$Comp
L power:Earth #PWR028
U 1 1 6304B254
P 9390 4215
F 0 "#PWR028" H 9390 3965 50  0001 C CNN
F 1 "Earth" H 9390 4065 50  0001 C CNN
F 2 "" H 9390 4215 50  0001 C CNN
F 3 "~" H 9390 4215 50  0001 C CNN
	1    9390 4215
	1    0    0    1   
$EndComp
Wire Wire Line
	9390 4215 9390 4240
Connection ~ 9390 4240
Wire Wire Line
	9390 4240 9540 4240
$Comp
L power:+5V #PWR025
U 1 1 630528C0
P 1730 4010
F 0 "#PWR025" H 1730 3860 50  0001 C CNN
F 1 "+5V" H 1745 4183 50  0000 C CNN
F 2 "" H 1730 4010 50  0001 C CNN
F 3 "" H 1730 4010 50  0001 C CNN
	1    1730 4010
	0    -1   -1   0   
$EndComp
Wire Wire Line
	1730 4010 1765 4010
Connection ~ 1765 4010
$Comp
L power:+5V #PWR030
U 1 1 630578E7
P 9575 4485
F 0 "#PWR030" H 9575 4335 50  0001 C CNN
F 1 "+5V" H 9590 4658 50  0000 C CNN
F 2 "" H 9575 4485 50  0001 C CNN
F 3 "" H 9575 4485 50  0001 C CNN
	1    9575 4485
	0    1    -1   0   
$EndComp
Wire Wire Line
	9575 4485 9540 4485
Connection ~ 9540 4485
$Comp
L Device:C_Small C8
U 1 1 6305E3AA
P 3440 3860
F 0 "C8" H 3532 3906 50  0000 L CNN
F 1 "0.1u" H 3532 3815 50  0000 L CNN
F 2 "Capacitor_SMD:C_0805_2012Metric_Pad1.18x1.45mm_HandSolder" H 3440 3860 50  0001 C CNN
F 3 "~" H 3440 3860 50  0001 C CNN
	1    3440 3860
	1    0    0    -1  
$EndComp
$Comp
L Device:C_Small C9
U 1 1 630611EA
P 7860 4340
F 0 "C9" H 7952 4386 50  0000 L CNN
F 1 "0.1u" H 7952 4295 50  0000 L CNN
F 2 "Capacitor_SMD:C_0805_2012Metric_Pad1.18x1.45mm_HandSolder" H 7860 4340 50  0001 C CNN
F 3 "~" H 7860 4340 50  0001 C CNN
	1    7860 4340
	-1   0    0    -1  
$EndComp
Wire Wire Line
	7860 4440 7860 4485
Wire Wire Line
	3435 4010 3440 4010
Wire Wire Line
	3440 4010 3440 3960
Wire Wire Line
	3435 4110 3435 4010
Connection ~ 3435 4010
Wire Wire Line
	7860 4585 7860 4485
Connection ~ 7860 4485
$Comp
L power:Earth #PWR023
U 1 1 63078C2E
P 3440 3735
F 0 "#PWR023" H 3440 3485 50  0001 C CNN
F 1 "Earth" H 3440 3585 50  0001 C CNN
F 2 "" H 3440 3735 50  0001 C CNN
F 3 "~" H 3440 3735 50  0001 C CNN
	1    3440 3735
	-1   0    0    1   
$EndComp
Wire Wire Line
	3440 3735 3440 3760
$Comp
L power:Earth #PWR027
U 1 1 6307EE84
P 7860 4210
F 0 "#PWR027" H 7860 3960 50  0001 C CNN
F 1 "Earth" H 7860 4060 50  0001 C CNN
F 2 "" H 7860 4210 50  0001 C CNN
F 3 "~" H 7860 4210 50  0001 C CNN
	1    7860 4210
	1    0    0    1   
$EndComp
Wire Wire Line
	7860 4240 7860 4210
$Comp
L power:Earth #PWR034
U 1 1 6308808C
P 8460 5325
F 0 "#PWR034" H 8460 5075 50  0001 C CNN
F 1 "Earth" H 8460 5175 50  0001 C CNN
F 2 "" H 8460 5325 50  0001 C CNN
F 3 "~" H 8460 5325 50  0001 C CNN
	1    8460 5325
	-1   0    0    -1  
$EndComp
Wire Wire Line
	8460 5325 8460 5305
Wire Wire Line
	8460 5305 9060 5305
Wire Wire Line
	9060 5305 9060 4785
Connection ~ 8460 5305
Wire Wire Line
	8460 5305 8460 5285
$Comp
L power:Earth #PWR033
U 1 1 63099FED
P 2835 4845
F 0 "#PWR033" H 2835 4595 50  0001 C CNN
F 1 "Earth" H 2835 4695 50  0001 C CNN
F 2 "" H 2835 4845 50  0001 C CNN
F 3 "~" H 2835 4845 50  0001 C CNN
	1    2835 4845
	1    0    0    -1  
$EndComp
Wire Wire Line
	2835 4845 2835 4830
Wire Wire Line
	2835 4830 2235 4830
Wire Wire Line
	2235 4830 2235 4310
Connection ~ 2835 4830
Wire Wire Line
	2835 4830 2835 4810
$Comp
L power:+3.3V #PWR026
U 1 1 630A5625
P 3525 4010
F 0 "#PWR026" H 3525 3860 50  0001 C CNN
F 1 "+3.3V" H 3540 4183 50  0000 C CNN
F 2 "" H 3525 4010 50  0001 C CNN
F 3 "" H 3525 4010 50  0001 C CNN
	1    3525 4010
	0    1    1    0   
$EndComp
Wire Wire Line
	3525 4010 3435 4010
$Comp
L power:+3.3V #PWR029
U 1 1 630ACEEC
P 7780 4485
F 0 "#PWR029" H 7780 4335 50  0001 C CNN
F 1 "+3.3V" H 7795 4658 50  0000 C CNN
F 2 "" H 7780 4485 50  0001 C CNN
F 3 "" H 7780 4485 50  0001 C CNN
	1    7780 4485
	0    -1   1    0   
$EndComp
Wire Wire Line
	7780 4485 7860 4485
Wire Wire Line
	7860 4685 7065 4685
Wire Wire Line
	7065 4685 7065 2865
Wire Wire Line
	7065 2865 6660 2865
Wire Wire Line
	7860 4785 6980 4785
Wire Wire Line
	6980 4785 6980 2965
Wire Wire Line
	6980 2965 6660 2965
$Comp
L Connector:Screw_Terminal_01x02 J8
U 1 1 630FBF32
P 2035 4110
F 0 "J8" H 2035 3905 50  0000 C CNN
F 1 "MOTOR1" H 2035 3830 50  0000 C CNN
F 2 "TerminalBlock_TE-Connectivity:TerminalBlock_TE_282834-2_1x02_P2.54mm_Horizontal" H 2035 4110 50  0001 C CNN
F 3 "~" H 2035 4110 50  0001 C CNN
	1    2035 4110
	-1   0    0    -1  
$EndComp
$Comp
L Connector:Screw_Terminal_01x02 J9
U 1 1 63100D4D
P 9260 4585
F 0 "J9" H 9340 4577 50  0000 L CNN
F 1 "MOTOR2" H 9340 4486 50  0000 L CNN
F 2 "TerminalBlock_TE-Connectivity:TerminalBlock_TE_282834-2_1x02_P2.54mm_Horizontal" H 9260 4585 50  0001 C CNN
F 3 "~" H 9260 4585 50  0001 C CNN
	1    9260 4585
	1    0    0    -1  
$EndComp
$Comp
L Connector_Generic:Conn_01x04 J10
U 1 1 6310C1AA
P 5915 4835
F 0 "J10" H 5995 4827 50  0000 L CNN
F 1 "Distance" H 5995 4736 50  0000 L CNN
F 2 "Connector_PinHeader_2.54mm:PinHeader_1x04_P2.54mm_Vertical" H 5915 4835 50  0001 C CNN
F 3 "~" H 5915 4835 50  0001 C CNN
	1    5915 4835
	0    1    1    0   
$EndComp
$Comp
L power:Earth #PWR032
U 1 1 6310C1B0
P 6065 4635
F 0 "#PWR032" H 6065 4385 50  0001 C CNN
F 1 "Earth" H 6065 4485 50  0001 C CNN
F 2 "" H 6065 4635 50  0001 C CNN
F 3 "~" H 6065 4635 50  0001 C CNN
	1    6065 4635
	0    -1   1    0   
$EndComp
Wire Wire Line
	6065 4635 6015 4635
$Comp
L power:+3.3V #PWR031
U 1 1 6310C1B9
P 5715 4585
F 0 "#PWR031" H 5715 4435 50  0001 C CNN
F 1 "+3.3V" H 5730 4758 50  0000 C CNN
F 2 "" H 5715 4585 50  0001 C CNN
F 3 "" H 5715 4585 50  0001 C CNN
	1    5715 4585
	0    -1   1    0   
$EndComp
Wire Wire Line
	5715 4635 5715 4585
Wire Wire Line
	5915 4635 5915 4385
Wire Wire Line
	5915 4385 6210 4385
Wire Wire Line
	6210 4385 6210 4065
$Comp
L Connector:Screw_Terminal_01x02 J1
U 1 1 6312CB2F
P 1515 2620
F 0 "J1" H 1433 2295 50  0000 C CNN
F 1 "POWER" H 1433 2386 50  0000 C CNN
F 2 "TerminalBlock_TE-Connectivity:TerminalBlock_TE_282834-2_1x02_P2.54mm_Horizontal" H 1515 2620 50  0001 C CNN
F 3 "~" H 1515 2620 50  0001 C CNN
	1    1515 2620
	-1   0    0    1   
$EndComp
Wire Wire Line
	1715 2520 1715 2415
Wire Wire Line
	1715 2415 1985 2415
Wire Wire Line
	1715 2620 1715 2815
Wire Wire Line
	1715 2815 1985 2815
Connection ~ 1985 2815
$Comp
L Regulator_Linear:AZ1117-3.3 U1
U 1 1 63137DD7
P 2810 2415
F 0 "U1" H 2810 2657 50  0000 C CNN
F 1 "AZ1117-3.3" H 2810 2566 50  0000 C CNN
F 2 "Package_TO_SOT_SMD:SOT-89-3" H 2810 2665 50  0001 C CIN
F 3 "https://www.diodes.com/assets/Datasheets/AZ1117.pdf" H 2810 2415 50  0001 C CNN
	1    2810 2415
	1    0    0    -1  
$EndComp
Wire Wire Line
	2810 2715 2810 2815
Connection ~ 2810 2815
Wire Wire Line
	2810 2815 2710 2815
Wire Wire Line
	1985 2415 2510 2415
$Comp
L Connector_Generic:Conn_01x03 J5
U 1 1 63161BEB
P 2930 3355
F 0 "J5" H 2848 3672 50  0000 C CNN
F 1 "Conn_01x03" H 2848 3581 50  0000 C CNN
F 2 "Connector_PinHeader_2.54mm:PinHeader_1x03_P2.54mm_Vertical" H 2930 3355 50  0001 C CNN
F 3 "~" H 2930 3355 50  0001 C CNN
	1    2930 3355
	-1   0    0    1   
$EndComp
$Comp
L Connector_Generic:Conn_01x03 J6
U 1 1 63162E86
P 3680 3505
F 0 "J6" H 3598 3180 50  0000 C CNN
F 1 "Conn_01x03" H 3598 3271 50  0000 C CNN
F 2 "Connector_PinHeader_2.54mm:PinHeader_1x03_P2.54mm_Vertical" H 3680 3505 50  0001 C CNN
F 3 "~" H 3680 3505 50  0001 C CNN
	1    3680 3505
	-1   0    0    1   
$EndComp
$Comp
L power:+3.3V #PWR011
U 1 1 63171BDA
P 3880 3505
F 0 "#PWR011" H 3880 3355 50  0001 C CNN
F 1 "+3.3V" H 3895 3678 50  0000 C CNN
F 2 "" H 3880 3505 50  0001 C CNN
F 3 "" H 3880 3505 50  0001 C CNN
	1    3880 3505
	0    1    1    0   
$EndComp
Wire Wire Line
	3175 3255 3130 3255
$Comp
L power:Earth #PWR016
U 1 1 63182C1B
P 3270 3485
F 0 "#PWR016" H 3270 3235 50  0001 C CNN
F 1 "Earth" H 3270 3335 50  0001 C CNN
F 2 "" H 3270 3485 50  0001 C CNN
F 3 "~" H 3270 3485 50  0001 C CNN
	1    3270 3485
	1    0    0    -1  
$EndComp
Wire Wire Line
	3270 3485 3270 3455
Wire Wire Line
	3270 3455 3130 3455
$Comp
L power:Earth #PWR018
U 1 1 6318DBF6
P 3885 3635
F 0 "#PWR018" H 3885 3385 50  0001 C CNN
F 1 "Earth" H 3885 3485 50  0001 C CNN
F 2 "" H 3885 3635 50  0001 C CNN
F 3 "~" H 3885 3635 50  0001 C CNN
	1    3885 3635
	1    0    0    -1  
$EndComp
Wire Wire Line
	3885 3635 3885 3605
Wire Wire Line
	3885 3605 3880 3605
$Comp
L Connector_Generic:Conn_01x03 J4
U 1 1 631A0ADF
P 9225 3255
F 0 "J4" H 9143 3572 50  0000 C CNN
F 1 "Conn_01x03" H 9143 3481 50  0000 C CNN
F 2 "Connector_PinHeader_2.54mm:PinHeader_1x03_P2.54mm_Vertical" H 9225 3255 50  0001 C CNN
F 3 "~" H 9225 3255 50  0001 C CNN
	1    9225 3255
	1    0    0    1   
$EndComp
$Comp
L power:+3.3V #PWR08
U 1 1 631A0AE5
P 9025 3255
F 0 "#PWR08" H 9025 3105 50  0001 C CNN
F 1 "+3.3V" H 9040 3428 50  0000 C CNN
F 2 "" H 9025 3255 50  0001 C CNN
F 3 "" H 9025 3255 50  0001 C CNN
	1    9025 3255
	0    -1   1    0   
$EndComp
$Comp
L power:Earth #PWR012
U 1 1 631A0AED
P 8885 3385
F 0 "#PWR012" H 8885 3135 50  0001 C CNN
F 1 "Earth" H 8885 3235 50  0001 C CNN
F 2 "" H 8885 3385 50  0001 C CNN
F 3 "~" H 8885 3385 50  0001 C CNN
	1    8885 3385
	-1   0    0    -1  
$EndComp
Wire Wire Line
	8885 3385 8885 3355
Wire Wire Line
	8885 3355 9025 3355
$Comp
L Connector_Generic:Conn_01x03 J7
U 1 1 631A73A0
P 9845 3640
F 0 "J7" H 9763 3957 50  0000 C CNN
F 1 "Conn_01x03" H 9763 3866 50  0000 C CNN
F 2 "Connector_PinHeader_2.54mm:PinHeader_1x03_P2.54mm_Vertical" H 9845 3640 50  0001 C CNN
F 3 "~" H 9845 3640 50  0001 C CNN
	1    9845 3640
	1    0    0    1   
$EndComp
$Comp
L power:Earth #PWR024
U 1 1 631A73AE
P 9505 3770
F 0 "#PWR024" H 9505 3520 50  0001 C CNN
F 1 "Earth" H 9505 3620 50  0001 C CNN
F 2 "" H 9505 3770 50  0001 C CNN
F 3 "~" H 9505 3770 50  0001 C CNN
	1    9505 3770
	-1   0    0    -1  
$EndComp
Wire Wire Line
	9505 3770 9505 3740
Wire Wire Line
	9505 3740 9645 3740
$Comp
L power:+5V #PWR09
U 1 1 631C0CE8
P 3130 3355
F 0 "#PWR09" H 3130 3205 50  0001 C CNN
F 1 "+5V" H 3145 3528 50  0000 C CNN
F 2 "" H 3130 3355 50  0001 C CNN
F 3 "" H 3130 3355 50  0001 C CNN
	1    3130 3355
	0    1    1    0   
$EndComp
$Comp
L power:+5V #PWR017
U 1 1 631CA000
P 9645 3640
F 0 "#PWR017" H 9645 3490 50  0001 C CNN
F 1 "+5V" H 9660 3813 50  0000 C CNN
F 2 "" H 9645 3640 50  0001 C CNN
F 3 "" H 9645 3640 50  0001 C CNN
	1    9645 3640
	0    -1   -1   0   
$EndComp
Wire Wire Line
	6660 3165 7795 3165
Wire Wire Line
	6660 3265 7545 3265
Wire Wire Line
	4810 3415 4065 3415
Wire Wire Line
	4810 3315 4575 3315
Wire Wire Line
	4575 3315 4575 3200
$Comp
L power:+3.3V #PWR0101
U 1 1 60E1CA18
P 8000 2515
F 0 "#PWR0101" H 8000 2365 50  0001 C CNN
F 1 "+3.3V" H 8015 2688 50  0000 C CNN
F 2 "" H 8000 2515 50  0001 C CNN
F 3 "" H 8000 2515 50  0001 C CNN
	1    8000 2515
	0    -1   1    0   
$EndComp
Wire Wire Line
	7760 2615 8035 2615
Wire Wire Line
	8000 2515 8035 2515
Wire Wire Line
	8035 2715 7715 2715
Wire Wire Line
	7715 2715 7715 2515
Wire Wire Line
	7715 2515 7760 2515
Wire Wire Line
	7795 3165 7795 4075
Wire Wire Line
	7795 4075 9365 4075
Wire Wire Line
	7545 3265 7545 4155
Wire Wire Line
	7545 4155 8720 4155
$Comp
L Device:C_Small C12
U 1 1 6331578A
P 4375 2680
F 0 "C12" H 4467 2726 50  0000 L CNN
F 1 "10u" H 4467 2635 50  0000 L CNN
F 2 "Capacitor_SMD:C_0805_2012Metric_Pad1.18x1.45mm_HandSolder" H 4375 2680 50  0001 C CNN
F 3 "~" H 4375 2680 50  0001 C CNN
	1    4375 2680
	1    0    0    -1  
$EndComp
Wire Wire Line
	4375 2415 4375 2580
Connection ~ 4375 2415
Wire Wire Line
	4375 2415 4810 2415
Wire Wire Line
	3960 3090 4375 3090
Wire Wire Line
	4375 3090 4375 2780
Connection ~ 3960 3090
Wire Wire Line
	8720 3155 9025 3155
Wire Wire Line
	8720 3155 8720 4155
Wire Wire Line
	9365 3540 9645 3540
Wire Wire Line
	9365 3540 9365 4075
Wire Wire Line
	3175 3200 3175 3255
Wire Wire Line
	3175 3200 4575 3200
Wire Wire Line
	4065 3405 4065 3415
Wire Wire Line
	3880 3405 4065 3405
Wire Wire Line
	5815 4635 5815 4325
Wire Wire Line
	5815 4325 6110 4325
Wire Wire Line
	6110 4325 6110 4065
Wire Wire Line
	4610 4210 4610 3615
Wire Wire Line
	4610 3615 4810 3615
Wire Wire Line
	3435 4210 4610 4210
Wire Wire Line
	5410 4310 5410 4065
Wire Wire Line
	3435 4310 5410 4310
$Comp
L Device:R_Small R4
U 1 1 62F5246B
P 1205 2445
F 0 "R4" H 1264 2491 50  0000 L CNN
F 1 "100k" H 1264 2400 50  0000 L CNN
F 2 "Resistor_SMD:R_0805_2012Metric_Pad1.20x1.40mm_HandSolder" H 1205 2445 50  0001 C CNN
F 3 "~" H 1205 2445 50  0001 C CNN
	1    1205 2445
	1    0    0    -1  
$EndComp
$Comp
L Device:R_Small R6
U 1 1 62F62055
P 1205 2680
F 0 "R6" H 1264 2726 50  0000 L CNN
F 1 "33k" H 1264 2635 50  0000 L CNN
F 2 "Resistor_SMD:R_0805_2012Metric_Pad1.20x1.40mm_HandSolder" H 1205 2680 50  0001 C CNN
F 3 "~" H 1205 2680 50  0001 C CNN
	1    1205 2680
	1    0    0    -1  
$EndComp
Wire Wire Line
	1715 2815 1205 2815
Wire Wire Line
	1205 2815 1205 2780
Connection ~ 1715 2815
Wire Wire Line
	1205 2545 1205 2565
Wire Wire Line
	1205 2345 1985 2345
Connection ~ 1985 2345
Wire Wire Line
	1985 2345 1985 2415
Wire Wire Line
	4650 2025 1015 2025
Wire Wire Line
	1015 2025 1015 2565
Wire Wire Line
	1015 2565 1205 2565
Connection ~ 1205 2565
Wire Wire Line
	1205 2565 1205 2580
Wire Wire Line
	6660 3365 6800 3365
Wire Wire Line
	6800 3365 6800 1320
Wire Wire Line
	6800 1320 4650 1320
Wire Wire Line
	4650 1320 4650 2025
$EndSCHEMATC
